{
  "todos": [
    {
      "id": "e0dbf3ec-68fd-4635-a484-b477e4e667e7",
      "name": "test_todo_ab1",
      "items": [
        {
          "id": "e70a3bd5-5a31-4a8b-8f3f-ddbf9c3f4830",
          "isDone": true,
          "text": "1234",
          "dueDate": 1622040002128
        },
        {
          "id": "f4830a10-6dcd-4f46-a075-db02bde8a1f9",
          "isDone": false,
          "text": "hello test",
          "dueDate": 1622037162137
        },
        {
          "id": "bce6aaa5-a17b-4af4-8987-ce1e9769fa35",
          "isDone": true,
          "text": "hello_5",
          "dueDate": 1621872623963
        },
        {
          "id": "1f4d92fd-7ba0-4d61-8fb3-497b7131c89b",
          "isDone": false,
          "text": "test1",
          "dueDate": 1622037217066
        },
        {
          "id": "330559fe-762b-4a25-81c8-8dab90848233",
          "isDone": false,
          "text": "today again",
          "dueDate": 1622037288658
        }
      ]
    },
    {
      "id": "d4d408fa-bcfc-485b-89ad-258980efb05a",
      "name": "test_todo_ab2",
      "items": [
        {
          "id": "6ed9ea01-e4fe-4597-91f3-e41fsfsea8c2",
          "isDone": true,
          "text": "hello_5",
          "dueDate": 1621872813509
        },
        {
          "id": "5f2a5854-a8d9-4d7d-97ae-4ceecde13590",
          "isDone": false,
          "text": "hello world! ab2",
          "dueDate": 1622035562363
        },
        {
          "id": "bd5c6204-59cd-4f96-8e33-82fda165075a",
          "isDone": true,
          "text": "test 2 ab2",
          "dueDate": 1622035620265
        }
      ]
    },
    {
      "id": "5169b347-f9bc-47fa-b44e-797046142823",
      "name": "test_todo_ab3",
      "items": []
    },
    {
      "id": "f4b2b283-25e8-4742-a441-806c0cb54e51",
      "name": "test_todo_v0",
      "items": []
    },
    {
      "id": "f23c8644-1937-4d27-96ba-0da0390ea971",
      "name": "test_todo_v1",
      "items": []
    },
    {
      "id": "fac1551f-2ed7-4689-b9d4-444f7d857765",
      "name": "go to gym at 5pm today",
      "items": []
    }
  ]
}